{
    "commit_info": {
        "author_time": "%aI", 
        "project": "gp3", 
        "dirty": true, 
        "branch": "master", 
        "time": "%cI", 
        "id": "e38da7af83b4e60f4c09a99f47e437d8089edb3e"
    }, 
    "version": "3.1.1", 
    "benchmarks": [
        {
            "group": null, 
            "name": "test_speed", 
            "param": null, 
            "params": null, 
            "stats": {
                "q1": 0.000469207763671875, 
                "q3": 0.0004918575286865234, 
                "total": 0.6885302066802979, 
                "iterations": 1, 
                "min": 0.00045609474182128906, 
                "max": 0.0005691051483154297, 
                "ops": 2069.625974538636, 
                "median": 0.0004799365997314453, 
                "iqr": 2.2649765014648438e-05, 
                "stddev_outliers": 374, 
                "ld15iqr": 0.00045609474182128906, 
                "stddev": 1.733492026289424e-05, 
                "hd15iqr": 0.0005269050598144531, 
                "outliers": "374;35", 
                "iqr_outliers": 35, 
                "rounds": 1425, 
                "mean": 0.00048317909240722654
            }, 
            "fullname": "tests/bench/test_coorddb.py::test_speed", 
            "options": {
                "disable_gc": false, 
                "warmup": false, 
                "timer": "time", 
                "min_rounds": 5, 
                "max_time": 1.0, 
                "min_time": 5e-06
            }, 
            "extra_info": {}
        }, 
        {
            "group": null, 
            "name": "test_leveldb_query", 
            "param": null, 
            "params": null, 
            "stats": {
                "q1": 0.00015807151794433594, 
                "q3": 0.0002932548522949219, 
                "total": 0.8785374164581299, 
                "iterations": 1, 
                "min": 0.0001480579376220703, 
                "max": 0.0012118816375732422, 
                "ops": 3953.161168708765, 
                "median": 0.0002808570861816406, 
                "iqr": 0.00013518333435058594, 
                "stddev_outliers": 1094, 
                "ld15iqr": 0.0001480579376220703, 
                "stddev": 6.57195441175204e-05, 
                "hd15iqr": 0.0005028247833251953, 
                "outliers": "1094;2", 
                "iqr_outliers": 2, 
                "rounds": 3473, 
                "mean": 0.0002529621124267578
            }, 
            "fullname": "tests/bench/test_coorddb.py::test_leveldb_query", 
            "options": {
                "disable_gc": false, 
                "warmup": false, 
                "timer": "time", 
                "min_rounds": 5, 
                "max_time": 1.0, 
                "min_time": 5e-06
            }, 
            "extra_info": {}
        }, 
        {
            "group": null, 
            "name": "test_separation_full[1]", 
            "param": "1", 
            "params": {
                "count": 1
            }, 
            "stats": {
                "q1": 0.0072890520095825195, 
                "q3": 0.007485508918762207, 
                "total": 0.9141123294830322, 
                "iterations": 1, 
                "min": 0.00722193717956543, 
                "max": 0.0338740348815918, 
                "ops": 131.27489492223006, 
                "median": 0.007366061210632324, 
                "iqr": 0.0001964569091796875, 
                "stddev_outliers": 1, 
                "ld15iqr": 0.00722193717956543, 
                "stddev": 0.0024208502077154924, 
                "hd15iqr": 0.007812976837158203, 
                "outliers": "1;4", 
                "iqr_outliers": 4, 
                "rounds": 120, 
                "mean": 0.0076176027456919355
            }, 
            "fullname": "tests/bench/test_coorddb.py::test_separation_full[1]", 
            "options": {
                "disable_gc": false, 
                "warmup": false, 
                "timer": "time", 
                "min_rounds": 5, 
                "max_time": 1.0, 
                "min_time": 5e-06
            }, 
            "extra_info": {}
        }, 
        {
            "group": null, 
            "name": "test_separation_full[2]", 
            "param": "2", 
            "params": {
                "count": 2
            }, 
            "stats": {
                "q1": 0.007306575775146484, 
                "q3": 0.0074384212493896484, 
                "total": 1.0037310123443604, 
                "iterations": 1, 
                "min": 0.0072231292724609375, 
                "max": 0.007711172103881836, 
                "ops": 135.49446846556245, 
                "median": 0.007369518280029297, 
                "iqr": 0.00013184547424316406, 
                "stddev_outliers": 38, 
                "ld15iqr": 0.0072231292724609375, 
                "stddev": 9.597246389521149e-05, 
                "hd15iqr": 0.00763702392578125, 
                "outliers": "38;4", 
                "iqr_outliers": 4, 
                "rounds": 136, 
                "mean": 0.007380375090767355
            }, 
            "fullname": "tests/bench/test_coorddb.py::test_separation_full[2]", 
            "options": {
                "disable_gc": false, 
                "warmup": false, 
                "timer": "time", 
                "min_rounds": 5, 
                "max_time": 1.0, 
                "min_time": 5e-06
            }, 
            "extra_info": {}
        }, 
        {
            "group": null, 
            "name": "test_separation_full[4]", 
            "param": "4", 
            "params": {
                "count": 4
            }, 
            "stats": {
                "q1": 0.007345914840698242, 
                "q3": 0.007524013519287109, 
                "total": 0.99737548828125, 
                "iterations": 1, 
                "min": 0.007238864898681641, 
                "max": 0.00790095329284668, 
                "ops": 134.35260999938805, 
                "median": 0.0074100494384765625, 
                "iqr": 0.0001780986785888672, 
                "stddev_outliers": 34, 
                "ld15iqr": 0.007238864898681641, 
                "stddev": 0.00014233959453853918, 
                "hd15iqr": 0.007847070693969727, 
                "outliers": "34;5", 
                "iqr_outliers": 5, 
                "rounds": 134, 
                "mean": 0.0074431006588152986
            }, 
            "fullname": "tests/bench/test_coorddb.py::test_separation_full[4]", 
            "options": {
                "disable_gc": false, 
                "warmup": false, 
                "timer": "time", 
                "min_rounds": 5, 
                "max_time": 1.0, 
                "min_time": 5e-06
            }, 
            "extra_info": {}
        }, 
        {
            "group": null, 
            "name": "test_separation_full[8]", 
            "param": "8", 
            "params": {
                "count": 8
            }, 
            "stats": {
                "q1": 0.007307529449462891, 
                "q3": 0.007449924945831299, 
                "total": 1.011213779449463, 
                "iterations": 1, 
                "min": 0.007203817367553711, 
                "max": 0.00775599479675293, 
                "ops": 135.4807487637156, 
                "median": 0.007367134094238281, 
                "iqr": 0.0001423954963684082, 
                "stddev_outliers": 45, 
                "ld15iqr": 0.007203817367553711, 
                "stddev": 9.453753869582851e-05, 
                "hd15iqr": 0.00775599479675293, 
                "outliers": "45;1", 
                "iqr_outliers": 1, 
                "rounds": 137, 
                "mean": 0.0073811224777333055
            }, 
            "fullname": "tests/bench/test_coorddb.py::test_separation_full[8]", 
            "options": {
                "disable_gc": false, 
                "warmup": false, 
                "timer": "time", 
                "min_rounds": 5, 
                "max_time": 1.0, 
                "min_time": 5e-06
            }, 
            "extra_info": {}
        }, 
        {
            "group": null, 
            "name": "test_separation_full[16]", 
            "param": "16", 
            "params": {
                "count": 16
            }, 
            "stats": {
                "q1": 0.007302045822143555, 
                "q3": 0.007500171661376953, 
                "total": 0.9945778846740723, 
                "iterations": 1, 
                "min": 0.0072040557861328125, 
                "max": 0.007905006408691406, 
                "ops": 134.73052444144423, 
                "median": 0.0073729753494262695, 
                "iqr": 0.00019812583923339844, 
                "stddev_outliers": 31, 
                "ld15iqr": 0.0072040557861328125, 
                "stddev": 0.0001572338920457442, 
                "hd15iqr": 0.007817983627319336, 
                "outliers": "31;4", 
                "iqr_outliers": 4, 
                "rounds": 134, 
                "mean": 0.007422223019955763
            }, 
            "fullname": "tests/bench/test_coorddb.py::test_separation_full[16]", 
            "options": {
                "disable_gc": false, 
                "warmup": false, 
                "timer": "time", 
                "min_rounds": 5, 
                "max_time": 1.0, 
                "min_time": 5e-06
            }, 
            "extra_info": {}
        }, 
        {
            "group": null, 
            "name": "test_separation_full[32]", 
            "param": "32", 
            "params": {
                "count": 32
            }, 
            "stats": {
                "q1": 0.0072820186614990234, 
                "q3": 0.0073969364166259766, 
                "total": 0.9987711906433105, 
                "iterations": 1, 
                "min": 0.007203817367553711, 
                "max": 0.0075490474700927734, 
                "ops": 136.1673236814151, 
                "median": 0.007324576377868652, 
                "iqr": 0.00011491775512695312, 
                "stddev_outliers": 45, 
                "ld15iqr": 0.007203817367553711, 
                "stddev": 7.603228827732538e-05, 
                "hd15iqr": 0.0075490474700927734, 
                "outliers": "45;0", 
                "iqr_outliers": 0, 
                "rounds": 136, 
                "mean": 0.007343905813553754
            }, 
            "fullname": "tests/bench/test_coorddb.py::test_separation_full[32]", 
            "options": {
                "disable_gc": false, 
                "warmup": false, 
                "timer": "time", 
                "min_rounds": 5, 
                "max_time": 1.0, 
                "min_time": 5e-06
            }, 
            "extra_info": {}
        }, 
        {
            "group": null, 
            "name": "test_separation_full[64]", 
            "param": "64", 
            "params": {
                "count": 64
            }, 
            "stats": {
                "q1": 0.0073049068450927734, 
                "q3": 0.007555961608886719, 
                "total": 0.9971210956573486, 
                "iterations": 1, 
                "min": 0.007223844528198242, 
                "max": 0.007858991622924805, 
                "ops": 134.3868869925583, 
                "median": 0.007387518882751465, 
                "iqr": 0.0002510547637939453, 
                "stddev_outliers": 39, 
                "ld15iqr": 0.007223844528198242, 
                "stddev": 0.00015809438354678592, 
                "hd15iqr": 0.007858991622924805, 
                "outliers": "39;0", 
                "iqr_outliers": 0, 
                "rounds": 134, 
                "mean": 0.007441202206398124
            }, 
            "fullname": "tests/bench/test_coorddb.py::test_separation_full[64]", 
            "options": {
                "disable_gc": false, 
                "warmup": false, 
                "timer": "time", 
                "min_rounds": 5, 
                "max_time": 1.0, 
                "min_time": 5e-06
            }, 
            "extra_info": {}
        }, 
        {
            "group": null, 
            "name": "test_separation_create[1]", 
            "param": "1", 
            "params": {
                "count": 1
            }, 
            "stats": {
                "q1": 0.004579782485961914, 
                "q3": 0.004678547382354736, 
                "total": 0.9685430526733398, 
                "iterations": 1, 
                "min": 0.004534006118774414, 
                "max": 0.004899024963378906, 
                "ops": 215.7880327809128, 
                "median": 0.004623889923095703, 
                "iqr": 9.876489639282227e-05, 
                "stddev_outliers": 65, 
                "ld15iqr": 0.004534006118774414, 
                "stddev": 6.91823962677498e-05, 
                "hd15iqr": 0.004837989807128906, 
                "outliers": "65;4", 
                "iqr_outliers": 4, 
                "rounds": 209, 
                "mean": 0.004634177285518373
            }, 
            "fullname": "tests/bench/test_coorddb.py::test_separation_create[1]", 
            "options": {
                "disable_gc": false, 
                "warmup": false, 
                "timer": "time", 
                "min_rounds": 5, 
                "max_time": 1.0, 
                "min_time": 5e-06
            }, 
            "extra_info": {}
        }, 
        {
            "group": null, 
            "name": "test_separation_create[2]", 
            "param": "2", 
            "params": {
                "count": 2
            }, 
            "stats": {
                "q1": 0.004632234573364258, 
                "q3": 0.004766941070556641, 
                "total": 1.0082943439483643, 
                "iterations": 1, 
                "min": 0.00456690788269043, 
                "max": 0.00501704216003418, 
                "ops": 212.23961166141297, 
                "median": 0.004686474800109863, 
                "iqr": 0.0001347064971923828, 
                "stddev_outliers": 68, 
                "ld15iqr": 0.00456690788269043, 
                "stddev": 9.84234250503221e-05, 
                "hd15iqr": 0.004971981048583984, 
                "outliers": "68;3", 
                "iqr_outliers": 3, 
                "rounds": 214, 
                "mean": 0.004711655812842824
            }, 
            "fullname": "tests/bench/test_coorddb.py::test_separation_create[2]", 
            "options": {
                "disable_gc": false, 
                "warmup": false, 
                "timer": "time", 
                "min_rounds": 5, 
                "max_time": 1.0, 
                "min_time": 5e-06
            }, 
            "extra_info": {}
        }, 
        {
            "group": null, 
            "name": "test_separation_create[4]", 
            "param": "4", 
            "params": {
                "count": 4
            }, 
            "stats": {
                "q1": 0.004613161087036133, 
                "q3": 0.004719376564025879, 
                "total": 0.9861390590667725, 
                "iterations": 1, 
                "min": 0.004569053649902344, 
                "max": 0.0049169063568115234, 
                "ops": 213.9657668561255, 
                "median": 0.0046579837799072266, 
                "iqr": 0.0001062154769897461, 
                "stddev_outliers": 55, 
                "ld15iqr": 0.004569053649902344, 
                "stddev": 7.597760725197564e-05, 
                "hd15iqr": 0.004879951477050781, 
                "outliers": "55;4", 
                "iqr_outliers": 4, 
                "rounds": 211, 
                "mean": 0.004673644829700343
            }, 
            "fullname": "tests/bench/test_coorddb.py::test_separation_create[4]", 
            "options": {
                "disable_gc": false, 
                "warmup": false, 
                "timer": "time", 
                "min_rounds": 5, 
                "max_time": 1.0, 
                "min_time": 5e-06
            }, 
            "extra_info": {}
        }, 
        {
            "group": null, 
            "name": "test_separation_create[8]", 
            "param": "8", 
            "params": {
                "count": 8
            }, 
            "stats": {
                "q1": 0.004644989967346191, 
                "q3": 0.004786014556884766, 
                "total": 0.9824786186218262, 
                "iterations": 1, 
                "min": 0.004579067230224609, 
                "max": 0.00507807731628418, 
                "ops": 211.70944187240676, 
                "median": 0.00469207763671875, 
                "iqr": 0.00014102458953857422, 
                "stddev_outliers": 51, 
                "ld15iqr": 0.004579067230224609, 
                "stddev": 0.0001027092389476524, 
                "hd15iqr": 0.005009889602661133, 
                "outliers": "51;4", 
                "iqr_outliers": 4, 
                "rounds": 208, 
                "mean": 0.004723454897220318
            }, 
            "fullname": "tests/bench/test_coorddb.py::test_separation_create[8]", 
            "options": {
                "disable_gc": false, 
                "warmup": false, 
                "timer": "time", 
                "min_rounds": 5, 
                "max_time": 1.0, 
                "min_time": 5e-06
            }, 
            "extra_info": {}
        }, 
        {
            "group": null, 
            "name": "test_separation_create[16]", 
            "param": "16", 
            "params": {
                "count": 16
            }, 
            "stats": {
                "q1": 0.004616498947143555, 
                "q3": 0.004724979400634766, 
                "total": 0.9534351825714111, 
                "iterations": 1, 
                "min": 0.004565000534057617, 
                "max": 0.005135059356689453, 
                "ops": 213.96315526118175, 
                "median": 0.004650592803955078, 
                "iqr": 0.00010848045349121094, 
                "stddev_outliers": 44, 
                "ld15iqr": 0.004565000534057617, 
                "stddev": 8.232223401027364e-05, 
                "hd15iqr": 0.004899024963378906, 
                "outliers": "44;4", 
                "iqr_outliers": 4, 
                "rounds": 204, 
                "mean": 0.004673701875350054
            }, 
            "fullname": "tests/bench/test_coorddb.py::test_separation_create[16]", 
            "options": {
                "disable_gc": false, 
                "warmup": false, 
                "timer": "time", 
                "min_rounds": 5, 
                "max_time": 1.0, 
                "min_time": 5e-06
            }, 
            "extra_info": {}
        }, 
        {
            "group": null, 
            "name": "test_separation_create[32]", 
            "param": "32", 
            "params": {
                "count": 32
            }, 
            "stats": {
                "q1": 0.004647016525268555, 
                "q3": 0.004778504371643066, 
                "total": 1.0030102729797363, 
                "iterations": 1, 
                "min": 0.004580974578857422, 
                "max": 0.005605936050415039, 
                "ops": 211.3637374522514, 
                "median": 0.004703998565673828, 
                "iqr": 0.00013148784637451172, 
                "stddev_outliers": 27, 
                "ld15iqr": 0.004580974578857422, 
                "stddev": 0.00012427162439065955, 
                "hd15iqr": 0.005030155181884766, 
                "outliers": "27;7", 
                "iqr_outliers": 7, 
                "rounds": 212, 
                "mean": 0.004731180532923284
            }, 
            "fullname": "tests/bench/test_coorddb.py::test_separation_create[32]", 
            "options": {
                "disable_gc": false, 
                "warmup": false, 
                "timer": "time", 
                "min_rounds": 5, 
                "max_time": 1.0, 
                "min_time": 5e-06
            }, 
            "extra_info": {}
        }, 
        {
            "group": null, 
            "name": "test_separation_create[64]", 
            "param": "64", 
            "params": {
                "count": 64
            }, 
            "stats": {
                "q1": 0.004808902740478516, 
                "q3": 0.005023956298828125, 
                "total": 0.9423496723175049, 
                "iterations": 1, 
                "min": 0.004580974578857422, 
                "max": 0.005937814712524414, 
                "ops": 201.62367068344827, 
                "median": 0.004887938499450684, 
                "iqr": 0.00021505355834960938, 
                "stddev_outliers": 39, 
                "ld15iqr": 0.004580974578857422, 
                "stddev": 0.00025181542129823297, 
                "hd15iqr": 0.005371809005737305, 
                "outliers": "39;19", 
                "iqr_outliers": 19, 
                "rounds": 190, 
                "mean": 0.004959735117460552
            }, 
            "fullname": "tests/bench/test_coorddb.py::test_separation_create[64]", 
            "options": {
                "disable_gc": false, 
                "warmup": false, 
                "timer": "time", 
                "min_rounds": 5, 
                "max_time": 1.0, 
                "min_time": 5e-06
            }, 
            "extra_info": {}
        }
    ], 
    "machine_info": {
        "node": "ga-ws63", 
        "python_version": "2.7.6", 
        "python_implementation": "CPython", 
        "python_build": [
            "default", 
            "Nov 23 2017 15:49:48"
        ], 
        "python_implementation_version": "2.7.6", 
        "system": "Linux", 
        "processor": "x86_64", 
        "machine": "x86_64", 
        "release": "3.13.0-110-generic", 
        "python_compiler": "GCC 4.8.4", 
        "cpu": {
            "hardware": "unknown", 
            "brand": "Intel(R) Core(TM) i5-3470 CPU @ 3.20GHz", 
            "vendor_id": "GenuineIntel"
        }
    }, 
    "datetime": "2018-03-20T18:18:18.482986"
}